Programación y manejo de datos (Respuestas al examen final)
…
Calcula y almacena en un data.frame, …

Code

df <- gapminder::gapminder
bb <- df %>% 
  select(3, 2, 4)%>%
  arrange(lifeExp) %>%
  arrange(3)%>%
  group_by(continent)

print(bb)

# A tibble: 1,704 × 3
# Groups:   continent [5]
    year continent lifeExp
   <int> <fct>       <dbl>
 1  1992 Africa       23.6
 2  1952 Asia         28.8
 3  1952 Africa       30  
 4  1952 Africa       30.0
 5  1952 Africa       30.3
 6  1957 Asia         30.3
 7  1977 Asia         31.2
 8  1952 Africa       31.3
 9  1957 Africa       31.6
10  1952 Africa       32.0
# ℹ 1,694 more rows
…
